{
  "date-added": "2020/01/04",
  "description": "14K yellow and white gold spessartite garnet leverback dangle earrings.",
  "featured": 1,
  "img": "img/products/spessears.jpg",
  "price": 690.00,
  "metals": ["14K Yellow Gold", "14K White Gold"],
  "jewel_types": ["garnet"],
  "tags": [
    "custom"
  ],
  "type": "ear"
}