{
  "description": "14K yellow gold precious topaz and filigree link dangle earrings.",
  "price": 240.00,
  "metals": ["14K Yellow Gold"],
  "jewel_types": ["topaz"],
  "img": "img/products/imptopazears.jpg",
  "featured": 1,
  "date-added": "2020/01/04",
  "tags": [
    "custom"
  ],
  "type": "ear"
}