{
  "description": "0.40 ct. AA grade African ruby bezel set in 14K yellow gold Byzantine style ring setting. Center stone can be replaced with a different stone of choice.",
  "price": "Made to order",
  "metals": ["14K Yellow Gold"],
  "jewel_types": ["ruby"],
  "img": "img/products/sitepics_010.jpg",
  "featured": 0,
  "date-added": "2020/01/01",
  "tags": [
    "custom"
  ],
  "type": "ring"
}
