{
  "description": "14K white gold semi-bezel victorian insprired ring set with a 7.5mm roundish oval natural blue boulder opal.",
  "price": 420.00,
  "metals": ["14K White Gold"],
  "jewel_types": ["opal"],
  "img": "img/products/blue_opal_ring.jpg",
  "featured": 0,
  "date-added": "2020/01/01",
  "tags": [
    "custom"
  ],
  "type": "ring"
}