{
  "description": "14K yellow gold and sterling silver horse shoe bangle.",
  "price": "Made to order",
  "metals": ["14K Yellow Gold", "Sterling Silver"],
  "jewel_types": ["none"],
  "img": "img/products/horseshoe_3.jpg",
  "featured": 0,
  "date-added": "2020/01/01",
  "tags": [
    "custom",
    "equestrian"
  ],
  "type": "bracelet"
}