{
  "description": "14K rose gold pendant with garnet.",
  "price": 450.00,
  "metals": ["14K Rose Gold"],
  "jewel_types": ["garnet"],
  "img": "img/products/rose_gold_garnet.jpg",
  "featured": 0,
  "date-added": "2020/01/01",
  "tags": [
    "custom"
  ],
  "type": "necklace"
}