{
  "description": "Sterling silver shank and 14K yellow gold semi-bezel set with a 1 ct. oval natural honey zircon.",
  "price": 290.00,
  "metals": ["Sterling Silver", "14K Yellow Gold"],
  "jewel_types": ["zircon"],
  "img": "img/products/honey_zircon.jpg",
  "featured": 0,
  "date-added": "2020/01/04",
  "tags": [
    "custom",
    "portfolio"
  ],
  "type": "ring"
}